{
    "editor": [
        {
            "icon": "",
            "key": "preGameScreen",
            "header": "PreGameScreen",
            "disabled": false,
            "fields": [
                {
                    "key": "titleText",
                    "header": "Title Text",
                    "type": "text"
                },
                {
                    "key": "playButtonText",
                    "header": "Play Button Text",
                    "type": "text"
                },
                {
                    "key": "buttonTextColor",
                    "header": "Play Button Text Color",
                    "type": "color"
                },
                {
                    "key": "backgroundImage",
                    "header": "Background Image",
                    "type": "image"
                },
                {
                    "key": "titleImage",
                    "header": "Header Image",
                    "type": "image"
                },
                {
                    "key": "cardColor",
                    "header": "Card Color",
                    "type": "color"
                },
                {
                    "key": "buttonColor",
                    "header": "Play Button Color",
                    "type": "color"
                },
                {
                    "key": "fontFamily",
                    "header": "Google Font Name",
                    "type": "text"
                },
                {
                    "key": "showLeaderboardButton",
                    "header": "Show leaderboard button",
                    "type": "boolean"
                },
                {
                    "key": "leaderboardButtonText",
                    "header": "Leaderboard button text",
                    "type": "text"
                }
            ]
        },
        {
            "icon": "",
            "key": "postGameScreen",
            "header": "Post Game Screen",
            "disabled": false,
            "fields": [
                {
                    "key": "scoreText",
                    "header": "Text before score",
                    "type": "text"
                },
                {
                    "key": "textColor",
                    "header": "Text Color",
                    "type": "text"
                },
                {
                    "key": "cardColor",
                    "header": "Card Background Color",
                    "type": "color"
                },
                {
                    "key": "playButtonText",
                    "header": "Play again button text",
                    "type": "text"
                },
                {
                    "key": "buttonColor",
                    "header": "Buttons color",
                    "type": "text"
                },
                {
                    "key": "buttonTextColor",
                    "header": "Buttons text color",
                    "type": "color"
                },
                {
                    "key": "showText",
                    "header": "Show custom text",
                    "type": "boolean"
                },
                {
                    "key": "customText",
                    "header": "Custom text",
                    "type": "text"
                },
                {
                    "key": "showLeadeboardButton",
                    "header": "Show Leadeboard Button",
                    "type": "boolean"
                },
                {
                    "key": "leaderboardButtonText",
                    "type": "text",
                    "header": "Leadeboard button text"
                },
                {
                    "key": "showCTA",
                    "header": "Show CTA Button",
                    "type": "boolean"
                },
                {
                    "key": "ctaText",
                    "header": "CTA text",
                    "type": "text"
                },
                {
                    "key": "ctaButtonText",
                    "header": "CTA button text",
                    "type": "text"
                },
                {
                    "key": "ctaUrl",
                    "header": "CTA Link",
                    "type": "text"
                }
            ]
        },
        {
            "icon": "",
            "key": "settings",
            "header": "Game Settings",
            "disabled": false,
            "fields": [
                {
                    "key": "instructions1",
                    "type": "text",
                    "header": "Instructions Text 1"
                },
                {
                    "key": "instructions2",
                    "type": "text",
                    "header": "Instructions Text 2"
                },
                {
                    "key": "instructions3",
                    "type": "text",
                    "header": "Instructions Text 3"
                },
                {
                    "key": "textColor",
                    "header": "In Game Text Color",
                    "type": "color"
                },
                {
                    "key": "block",
                    "header": "Block Image",
                    "type": "image"
                }, 
                {
                    "key": "showPlayer",
                    "header": "Show player over platform",
                    "type": "boolean"
                },
                {
                    "key": "idle",
                    "header": "Player idle sprite",
                    "type": "image"
                },
                {
                    "key": "jump",
                    "header": "Player jump sprite",
                    "type": "image"
                },
                {
                    "key": "blockSize",
                    "type": "range",
                    "header": "Block size"
                },
                {
                    "key": "depth",
                    "header": "Show depth effect",
                    "type": "boolean"
                },
                {
                    "key": "tap",
                    "header": "Tap sound effect",
                    "type": "sound"
                },
                {
                    "key": "theme",
                    "header": "Background Music",
                    "type": "sound"
                },
                {
                    "key": "lose",
                    "header": "Lose sound effect",
                    "type": "sound"
                },
                {
                    "key": "volume",
                    "header": "Background music volume",
                    "type": "range"
                },
                {
                    "key": "showComboText",
                    "header": "Show text when performing a combo",
                    "type": "boolean"
                },
                {
                    "key": "comboTextColor",
                    "header": "Combo text color",
                    "type": "color"
                },
                {
                    "key": "comboTexts",
                    "header": "Combo texts",
                    "type": "array",
                    "fields": [
                        {
                            "key": "i1",
                            "header": "1",
                            "type": "text"
                        },
                        {
                            "key": "i2",
                            "header": "2",
                            "type": "text"
                        },
                        {
                            "key": "i3",
                            "header": "3",
                            "type": "text"
                        },
                        {
                            "key": "i4",
                            "header": "4",
                            "type": "text"
                        }
                    ]
                }
            ]
        }
    ],
    "config": {
        "preGameScreen": {
            "titleText": "Stack The Blocks",
            "playButtonText": "Play",
            "titleImage": "",
            "cardColor": "#ffffff",
            "buttonColor": "#000000",
            "buttonTextColor": "#ffffff",
            "backgroundImage": "assets/background.png",
            "titleImage": "assets/placeholder_logo.jpg",
            "fontFamily": "Balsamiq Sans",
            "showLeaderboardButton": true,
            "leaderboardButtonText": "Leadeboard"
        },
        "postGameScreen": {
            "scoreText": "Your score is: ",
            "playButtonText": "Play Again",
            "buttonColor": "#000000",
            "cardColor": "#ffffff",
            "textColor": "#ffffff",
            "showLeaderboardButton": true,
            "leaderboardButtonText": "Leaderboard",
            "showCTA": true,
            "ctaText": "Check out our page for more",
            "ctaButtonText": "Go to Playcent",
            "ctaUrl": "http://playcent.com/browser/#/home"
        },
        "settings": {
            "instructions1": "Tap to place blocks",
            "instructions2": "Place new blocks over the old ones",
            "instructions3": "Have fun!",
            "textColor": "#000",
            "theme": "assets/theme.ogg",
            "volume": "0.7",
            "block": "assets/block.png",
            "blockSize": 40,
            "showPlayer": true,
            "idle": "assets/idle.png",
            "jump": "assets/jump.png",
            "depth": true,
            "showComboText": true,
            "comboTextColor": "#ffff00",
            "comboTexts": {
                "i1": "Nice!",
                "i2": "Keep up!",
                "i3": "Great!",
                "i4": "Perfect!"
            },
            "tap": "assets/tap.wav",
            "lose": "assets/lose.wav"
        } 
    }
}
